[
  {
    "pageName": "AdvertiserList",
    "visible": true,
    "elements": [
      {
        "name": "email",
        "visible": true,
        "enabled": true,
        "type": "element"
      },
      {
        "name": "fullName",
        "visible": true,
        "enabled": true,
        "type": "element"
      },
      {
        "name": "mobileNumber",
        "visible": false,
        "enabled": true,
        "type": "element"
      },
      {
        "name": "role",
        "visible": true,
        "enabled": true,
        "type": "element"
      },
      {
        "name": "noOfactivecampaign",
        "visible": true,
        "enabled": true,
        "type": "element"
      },
      {
        "name": "noOfunapprovedadverts",
        "visible": true,
        "enabled": true,
        "type": "element"
      },
      {
        "name": "ticketCount",
        "visible": true,
        "enabled": true,
        "type": "element"
      },
      {
        "name": "creditlimit",
        "visible": true,
        "enabled": true,
        "type": "element"
      },
      {
        "name": "outstandinginvoice",
        "visible": true,
        "enabled": true,
        "type": "element"
      },
      {
        "name": "dateCreated",
        "visible": true,
        "enabled": true,
        "type": "element"
      },
      {
        "name": "rStatus",
        "visible": true,
        "enabled": true,
        "type": "element"
      },
      {
        "name": "action",
        "visible": true,
        "enabled": true,
        "type": "element"
      },
      {
        "name": "fullName",
        "visible": true,
        "enabled": true,
        "type": "search"
      },
      {
        "name": "email",
        "visible": true,
        "enabled": true,
        "type": "search"
      },
      {
        "name": "status",
        "visible": true,
        "enabled": true,
        "type": "search"
      },
      {
        "name": "dateRange",
        "visible": true,
        "enabled": true,
        "type": "search"
      },
      {
        "name": "country",
        "visible": true,
        "enabled": true,
        "type": "search"
      }
    ]
  },
  {
    "pageName": "OperatorAdminList",
    "visible": true,
    "elements": [
      {
        "name": "email",
        "visible": true,
        "enabled": true,
        "type": "element"
      },
      {
        "name": "fullName",
        "visible": true,
        "enabled": true,
        "type": "element"
      },
      {
        "name": "organisation",
        "visible": true,
        "enabled": true,
        "type": "element"
      },
      {
        "name": "countryName",
        "visible": true,
        "enabled": true,
        "type": "element"
      },
      {
        "name": "operatorName",
        "visible": true,
        "enabled": true,
        "type": "element"
      },
      {
        "name": "rStatus",
        "visible": true,
        "enabled": true,
        "type": "element"
      },
      {
        "name": "dateCreated",
        "visible": true,
        "enabled": true,
        "type": "element"
      },
      {
        "name": "action",
        "visible": true,
        "enabled": true,
        "type": "element"
      },
      {
        "name": "fullName",
        "visible": true,
        "enabled": true,
        "type": "search"
      },
      {
        "name": "email",
        "visible": true,
        "enabled": true,
        "type": "search"
      },
      {
        "name": "country",
        "visible": true,
        "enabled": true,
        "type": "search"
      }
    ]
  }
]
