[
  {
    "pageName": "AdvertsList",
    "visible":true,
    "elements": [
      {
        "name": "userName",
        "visible": true,
        "enabled": true,
        "type": "element"
      },
      {
        "name": "email",
        "visible": true,
        "enabled": false,
        "type": "element"
      },
      {
        "name": "clientName",
        "visible": true,
        "enabled": true,
        "type": "element"
      },
      {
        "name": "advertName",
        "visible": true,
        "enabled": true,
        "type": "element"
      },
      {
        "name": "brand",
        "visible": true,
        "enabled": true,
        "type": "element"
      },
      {
        "name": "scripts",
        "visible": true,
        "enabled": true,
        "type": "element"
      },
      {
        "name": "listen",
        "visible": true,
        "enabled": true,
        "type": "element"
      },
      {
        "name": "smsBody",
        "visible": true,
        "enabled": true,
        "type": "element"
      },
      {
        "name": "emailBody",
        "visible": true,
        "enabled": true,
        "type": "element"
      },
      {
        "name": "createdDate",
        "visible": true,
        "enabled": true,
        "type": "element"
      },
      {
        "name": "rStatus",
        "visible": true,
        "enabled": true,
        "type": "element"
      },
      {
        "name": "action",
        "visible": true,
        "enabled": true,
        "type": "element"
      },
      {
        "name": "fullName",
        "visible": true,
        "enabled": true,
        "type": "search"
      },
      {
        "name": "client",
        "visible": false,
        "enabled": true,
        "type": "search"
      },
      {
        "name": "name",
        "visible": true,
        "enabled": true,
        "type": "search"
      },
      {
        "name": "status",
        "visible": true,
        "enabled": true,
        "type": "search"
      },
      {
        "name": "dateRange",
        "visible": true,
        "enabled": true,
        "type": "search"
      }
    ]
  }
]
