[
  {
    "pageName": "Login",
    "visible": true,
    "elements": [
      {
        "name": "defaultroute",
        "visible": true,
        "enabled": true,
        "type": "element",
        "route": "advertisers"
      }
    ]
  }
]
