[
  {
    "pageName": "MyProfile",
    "visible": true,
    "elements": []
  },
  {
    "pageName": "ContactProfileEdit",
    "visible": true,
    "elements": [
      {
        "name": "phoneNumber",
        "visible": true,
        "enabled": true,
        "type": "element"
      },
      {
        "name": "mobileNumber",
        "visible": true,
        "enabled": true,
        "type": "element"
      }
    ]
  },
  {
    "pageName": "UserProfileEdit",
    "visible": true,
    "elements": [
      {
        "name": "email",
        "visible": true,
        "enabled": false,
        "type": "element"
      },
      {
        "name": "firstName",
        "visible": true,
        "enabled": true,
        "type": "element"
      },
      {
        "name": "lastName",
        "visible": true,
        "enabled": true,
        "type": "element"
      },{
        "name": "organisation",
        "visible": true,
        "enabled": true,
        "type": "element"
      },
      {
        "name": "outstandingdays",
        "visible": false,
        "enabled": false,
        "type": "element"
      },
      {
        "name": "roleId",
        "visible": false,
        "enabled": false,
        "type": "element"
      }
    ]
  },
  {
    "pageName": "CompanyProfileEdit",
    "visible": false,
    "elements": [
      {
        "name": "companyName",
        "visible": true,
        "enabled": true,
        "type": "element"
      },
      {
        "name": "address",
        "visible": true,
        "enabled": true,
        "type": "element"
      }
    ]
  },
  {
    "pagename": "UpdatePassword",
    "visible": true,
    "elements": []
  }
]
