{
  "result": 1,
  "error": null,
  "body": {
      "campaignProfileDemographicsmodel": {
          "campaignProfileDemographicsId": 0,
          "campaignProfileId": 51,
          "dobStart_Demographics": null,
          "dobEnd_Demographics": null,
          "ageQuestion": [
              {
                  "questionName": "Under 18",
                  "questionValue": "A",
                  "selected": false,
                  "defaultAnswer": false
              },
              {
                  "questionName": "18-24",
                  "questionValue": "B",
                  "selected": false,
                  "defaultAnswer": false
              },
              {
                  "questionName": "25-34",
                  "questionValue": "C",
                  "selected": true,
                  "defaultAnswer": false
              },
              {
                  "questionName": "35-44",
                  "questionValue": "D",
                  "selected": false,
                  "defaultAnswer": false
              },
              {
                  "questionName": "45-54",
                  "questionValue": "E",
                  "selected": false,
                  "defaultAnswer": false
              },
              {
                  "questionName": "55-64",
                  "questionValue": "F",
                  "selected": false,
                  "defaultAnswer": false
              },
              {
                  "questionName": "65+",
                  "questionValue": "G",
                  "selected": false,
                  "defaultAnswer": false
              },
              {
                  "questionName": "Prefer not to answer",
                  "questionValue": "H",
                  "selected": false,
                  "defaultAnswer": true
              }
          ],
          "age_Demographics": "C",
          "genderQuestion": [
              {
                  "questionName": "Male",
                  "questionValue": "A",
                  "selected": true,
                  "defaultAnswer": false
              },
              {
                  "questionName": "Female",
                  "questionValue": "B",
                  "selected": false,
                  "defaultAnswer": false
              },
              {
                  "questionName": "Prefer not to answer",
                  "questionValue": "C",
                  "selected": false,
                  "defaultAnswer": true
              }
          ],
          "gender_Demographics": "A",
          "incomeBracketQuestion": [
              {
                  "questionName": "£0 to £14,999",
                  "questionValue": "A",
                  "selected": false,
                  "defaultAnswer": false
              },
              {
                  "questionName": "£15,000 to £24,999",
                  "questionValue": "B",
                  "selected": false,
                  "defaultAnswer": false
              },
              {
                  "questionName": "£25,000 to £39,999",
                  "questionValue": "C",
                  "selected": false,
                  "defaultAnswer": false
              },
              {
                  "questionName": "£40,000 to £74,999",
                  "questionValue": "D",
                  "selected": false,
                  "defaultAnswer": false
              },
              {
                  "questionName": "£75,000 to £99,999",
                  "questionValue": "E",
                  "selected": false,
                  "defaultAnswer": false
              },
              {
                  "questionName": "£100,000+",
                  "questionValue": "F",
                  "selected": true,
                  "defaultAnswer": false
              },
              {
                  "questionName": "Prefer not to answer",
                  "questionValue": "G",
                  "selected": false,
                  "defaultAnswer": true
              }
          ],
          "incomeBracket_Demographics": "F",
          "workingStatusQuestion": [
              {
                  "questionName": "Employed",
                  "questionValue": "A",
                  "selected": true,
                  "defaultAnswer": false
              },
              {
                  "questionName": "Self-Employed",
                  "questionValue": "B",
                  "selected": false,
                  "defaultAnswer": false
              },
              {
                  "questionName": "Housewife/Househusband",
                  "questionValue": "C",
                  "selected": false,
                  "defaultAnswer": false
              },
              {
                  "questionName": "Retired",
                  "questionValue": "D",
                  "selected": false,
                  "defaultAnswer": false
              },
              {
                  "questionName": "Unpaid Carer",
                  "questionValue": "E",
                  "selected": false,
                  "defaultAnswer": false
              },
              {
                  "questionName": "Full or Part-time Education",
                  "questionValue": "F",
                  "selected": false,
                  "defaultAnswer": false
              },
              {
                  "questionName": "Not Working",
                  "questionValue": "G",
                  "selected": false,
                  "defaultAnswer": false
              },
              {
                  "questionName": "None of these",
                  "questionValue": "H",
                  "selected": false,
                  "defaultAnswer": false
              },
              {
                  "questionName": "Prefer not to answer",
                  "questionValue": "I",
                  "selected": false,
                  "defaultAnswer": true
              }
          ],
          "workingStatus_Demographics": "A",
          "relationshipStatusQuestion": [
              {
                  "questionName": "Divorced",
                  "questionValue": "A",
                  "selected": false,
                  "defaultAnswer": false
              },
              {
                  "questionName": "Living with another",
                  "questionValue": "B",
                  "selected": false,
                  "defaultAnswer": false
              },
              {
                  "questionName": "Married",
                  "questionValue": "C",
                  "selected": true,
                  "defaultAnswer": false
              },
              {
                  "questionName": "Separated",
                  "questionValue": "D",
                  "selected": false,
                  "defaultAnswer": false
              },
              {
                  "questionName": "Single",
                  "questionValue": "E",
                  "selected": false,
                  "defaultAnswer": false
              },
              {
                  "questionName": "Widowed",
                  "questionValue": "F",
                  "selected": false,
                  "defaultAnswer": false
              },
              {
                  "questionName": "Prefer not to answer",
                  "questionValue": "G",
                  "selected": false,
                  "defaultAnswer": true
              }
          ],
          "relationshipStatus_Demographics": "C",
          "educationQuestion": [
              {
                  "questionName": "Secondary",
                  "questionValue": "A",
                  "selected": false,
                  "defaultAnswer": false
              },
              {
                  "questionName": "College",
                  "questionValue": "B",
                  "selected": false,
                  "defaultAnswer": false
              },
              {
                  "questionName": "University",
                  "questionValue": "C",
                  "selected": false,
                  "defaultAnswer": false
              },
              {
                  "questionName": "Post Graduate",
                  "questionValue": "D",
                  "selected": false,
                  "defaultAnswer": false
              },
              {
                  "questionName": "Prefer not to answer",
                  "questionValue": "E",
                  "selected": true,
                  "defaultAnswer": true
              }
          ],
          "education_Demographics": "E",
          "householdStatusQuestion": [
              {
                  "questionName": "Rent",
                  "questionValue": "A",
                  "selected": true,
                  "defaultAnswer": false
              },
              {
                  "questionName": "Owner",
                  "questionValue": "B",
                  "selected": false,
                  "defaultAnswer": false
              },
              {
                  "questionName": "Live with someone",
                  "questionValue": "C",
                  "selected": false,
                  "defaultAnswer": false
              },
              {
                  "questionName": "Prefer not to answer",
                  "questionValue": "D",
                  "selected": false,
                  "defaultAnswer": true
              }
          ],
          "householdStatus_Demographics": "A",
          "msisdn": null,
          "age": false,
          "gender": false,
          "householdStatus": false,
          "workingStatus": false,
          "relationshipStatus": false,
          "education": false
      },
      "campaignProfileAd": null,
      "campaignProfileMobileFormModel": null,
      "campaignProfileGeographicModel": {
          "postCode": null,
          "countryId": 0,
          "campaignProfileId": 0,
          "campaignProfileGeographicId": 0,
          "locationQuestion": [
              {
                  "questionName": "Nairobi",
                  "questionValue": "A",
                  "selected": false,
                  "defaultAnswer": false
              },
              {
                  "questionName": "Eastern",
                  "questionValue": "B",
                  "selected": false,
                  "defaultAnswer": false
              },
              {
                  "questionName": "North Eastern",
                  "questionValue": "C",
                  "selected": false,
                  "defaultAnswer": false
              },
              {
                  "questionName": "Rift Valley",
                  "questionValue": "D",
                  "selected": false,
                  "defaultAnswer": false
              },
              {
                  "questionName": "Western",
                  "questionValue": "E",
                  "selected": false,
                  "defaultAnswer": false
              },
              {
                  "questionName": "Coast",
                  "questionValue": "F",
                  "selected": false,
                  "defaultAnswer": false
              },
              {
                  "questionName": "Nyanza",
                  "questionValue": "G",
                  "selected": false,
                  "defaultAnswer": false
              },
              {
                  "questionName": "Central",
                  "questionValue": "H",
                  "selected": false,
                  "defaultAnswer": false
              }
          ],
          "location_Demographics": "",
          "location": false
      },
      "campaignProfileTimeSettingModel": null,
      "campaignProfileSkizaFormModel": null
  },
  "recordcount": 0
}
