﻿[
  {
    "loggerName": "console",
    "loggerLocation": "",
    "isActive":  false
  },
  {
    "loggerName": "localstorage",
    "loggerLocation": "logging",
    "isActive": true
  },
  {
    "loggerName": "webapi",
    "loggerLocation": "/api/log",
    "isActive": true
  }
]